{
	"name": 		"Kommentar - Schreiben",
	"author": 		"Christian Kehres",
	"copyright": 	"2014, webtischlerei",
	"financiers": {
		"0": {
			"business": "webtischlerei"
		}
	},
	"parameters": {
		"spam_protect_time": 10
	},
	"configurable": {
		"spam_protect_time": true
	}
}