{
	"name": 		"mein Konto - Formular - Persönliche Daten ändern",
	"author": 		"Christian Kehres",
	"copyright": 	"2014, webtischlerei",
	"financiers": {
		"0": {
			"business": "webtischlerei"
		},
		"1": {
			"business": "fashionweb"
		}
	},
	"parameters": {
		"lifetime": 	"0",
		"expiretime": 	"0"
	}
}