{
	"name": 		"Members",
	"author": 		"Christian Kehres",
	"copyright": 	"2013 - 2014, webtischlerei",
	"financiers": {
		"0": {
			"business": "fashionweb"
		}
	},
	"parameters": {
		"sorting": {
			"0": {
				"key": 		"nachname",
				"order": 	"asc"
			},
			"1": {
				"key": 		"vorname",
				"order": 	"asc"
			}
		}
	}
}